[
  {
    "title": "Overview",
    "url": "/overview.html"
  },
  {
    "title": "Basic Concepts",
    "url": "/basic_concepts.html"
  },
  {
    "title": "The Workspace",
    "url": "/workspace.html"
  },
  {
    "title": "File actions",
    "url": "/file_menu.html"
  },
  {
    "title": "Edit actions",
    "url": "/edit_menu.html"
  },
  {
    "title": "View Actions",
    "url": "/view_menu.html"
  },
  {
    "title": "Format actions",
    "url": "/format_menu.html"
  },
  {
    "title": "Macro Actions",
    "url": "/macro_menu.html"
  },
  {
    "title": "Advanced Topics",
    "url": "/advanced_topics.html"
  }
]